…
# Summarize data within cities
city_summary <- homicide_data %>%
  group_by(city_state) %>%
  summarize(
    total_homicides = n(),
    unsolved_homicides = sum(disposition %in% unsolved_dispositions)
  ) %>%
  ungroup()

city_summary
```

    ## # A tibble: 51 × 3
    ##    city_state      total_homicides unsolved_homicides
    ##    <chr>                     <int>              <int>
    ##  1 Albuquerque, NM             378                146
    ##  2 Atlanta, GA                 973                373
    ##  3 Baltimore, MD              2827               1825
    ##  4 Baton Rouge, LA             424                196
    ##  5 Birmingham, AL              800                347
    ##  6 Boston, MA                  614                310
    ##  7 Buffalo, NY                 521                319
    ##  8 Charlotte, NC               687                206
    ##  9 Chicago, IL                5535               4073
    ## 10 Cincinnati, OH              694                309
    ## # ℹ 41 more rows
…
# Arrange cities by estimated proportion
city_results <- city_results %>%
  arrange(desc(estimate))

city_results
```

    ## # A tibble: 51 × 6
    ##    city_state     total_homicides unsolved_homicides estimate conf.low conf.high
    ##    <chr>                    <int>              <int>    <dbl>    <dbl>     <dbl>
    ##  1 Chicago, IL               5535               4073    0.736    0.724     0.747
    ##  2 New Orleans, …            1434                930    0.649    0.623     0.673
    ##  3 Baltimore, MD             2827               1825    0.646    0.628     0.663
    ##  4 San Bernardin…             275                170    0.618    0.558     0.675
    ##  5 Buffalo, NY                521                319    0.612    0.569     0.654
    ##  6 Miami, FL                  744                450    0.605    0.569     0.640
    ##  7 Stockton, CA               444                266    0.599    0.552     0.645
    ##  8 Detroit, MI               2519               1482    0.588    0.569     0.608
    ##  9 Phoenix, AZ                914                504    0.551    0.518     0.584
    ## 10 Denver, CO                 312                169    0.542    0.485     0.598
    ## # ℹ 41 more rows
…
